%YAML 1.1
%TAG !u! tag:unity3d.com,2011:
--- !u!74 &7400000
AnimationClip:
  m_ObjectHideFlags: 0
  m_CorrespondingSourceObject: {fileID: 0}
  m_PrefabInstance: {fileID: 0}
  m_PrefabAsset: {fileID: 0}
  m_Name: IngeRun
  serializedVersion: 6
  m_Legacy: 0
  m_Compressed: 0
  m_UseHighQualityCurve: 1
  m_RotationCurves: []
  m_CompressedRotationCurves: []
  m_EulerCurves: []
  m_PositionCurves: []
  m_ScaleCurves: []
  m_FloatCurves: []
  m_PPtrCurves:
  - curve:
    - time: 0
      value: {fileID: 21300000, guid: 0013f547d15c6a84d96434b7c242422f, type: 3}
    - time: 0.06666667
      value: {fileID: 21300000, guid: 277cda2bed9a68843a5b85825109f025, type: 3}
    - time: 0.16666667
      value: {fileID: 21300000, guid: fdacd2a5be5ff5b449125d0ccd017776, type: 3}
    - time: 0.25
      value: {fileID: 21300000, guid: cb9a0d0f4d6feff4f91ac43da164f70d, type: 3}
    - time: 0.3
      value: {fileID: 21300000, guid: d517650dbe33fc44eb7538341d9949e9, type: 3}
    - time: 0.35
      value: {fileID: 21300000, guid: d6c8a759464cb704285f0a55fb504332, type: 3}
    - time: 0.48333332
      value: {fileID: 21300000, guid: 30eeedb2f8ce71c40aedf92323889032, type: 3}
    - time: 0.53333336
      value: {fileID: 21300000, guid: 1e0f92cbe9c933a47aa2d76408d4d3b4, type: 3}
    - time: 0.5833333
      value: {fileID: 21300000, guid: 1274838ece5ce514f96c0f79fb2ab510, type: 3}
    - time: 0.6666667
      value: {fileID: 21300000, guid: 695bd688c034e134582be4bb436d059c, type: 3}
    - time: 0.76666665
      value: {fileID: 21300000, guid: ce03ee91eadce9b4c9b2b054dea2b7d9, type: 3}
    - time: 0.8333333
      value: {fileID: 21300000, guid: afe0f288c0c01b242b952611230c073d, type: 3}
    attribute: m_Sprite
    path: 
    classID: 212
    script: {fileID: 0}
  m_SampleRate: 60
  m_WrapMode: 0
  m_Bounds:
    m_Center: {x: 0, y: 0, z: 0}
    m_Extent: {x: 0, y: 0, z: 0}
  m_ClipBindingConstant:
    genericBindings:
    - serializedVersion: 2
      path: 0
      attribute: 0
      script: {fileID: 0}
      typeID: 212
      customType: 23
      isPPtrCurve: 1
    pptrCurveMapping:
    - {fileID: 21300000, guid: 0013f547d15c6a84d96434b7c242422f, type: 3}
    - {fileID: 21300000, guid: 277cda2bed9a68843a5b85825109f025, type: 3}
    - {fileID: 21300000, guid: fdacd2a5be5ff5b449125d0ccd017776, type: 3}
    - {fileID: 21300000, guid: cb9a0d0f4d6feff4f91ac43da164f70d, type: 3}
    - {fileID: 21300000, guid: d517650dbe33fc44eb7538341d9949e9, type: 3}
    - {fileID: 21300000, guid: d6c8a759464cb704285f0a55fb504332, type: 3}
    - {fileID: 21300000, guid: 30eeedb2f8ce71c40aedf92323889032, type: 3}
    - {fileID: 21300000, guid: 1e0f92cbe9c933a47aa2d76408d4d3b4, type: 3}
    - {fileID: 21300000, guid: 1274838ece5ce514f96c0f79fb2ab510, type: 3}
    - {fileID: 21300000, guid: 695bd688c034e134582be4bb436d059c, type: 3}
    - {fileID: 21300000, guid: ce03ee91eadce9b4c9b2b054dea2b7d9, type: 3}
    - {fileID: 21300000, guid: afe0f288c0c01b242b952611230c073d, type: 3}
  m_AnimationClipSettings:
    serializedVersion: 2
    m_AdditiveReferencePoseClip: {fileID: 0}
    m_AdditiveReferencePoseTime: 0
    m_StartTime: 0
    m_StopTime: 0.84999996
    m_OrientationOffsetY: 0
    m_Level: 0
    m_CycleOffset: 0
    m_HasAdditiveReferencePose: 0
    m_LoopTime: 1
    m_LoopBlend: 0
    m_LoopBlendOrientation: 0
    m_LoopBlendPositionY: 0
    m_LoopBlendPositionXZ: 0
    m_KeepOriginalOrientation: 0
    m_KeepOriginalPositionY: 1
    m_KeepOriginalPositionXZ: 0
    m_HeightFromFeet: 0
    m_Mirror: 0
  m_EditorCurves: []
  m_EulerEditorCurves: []
  m_HasGenericRootTransform: 0
  m_HasMotionFloatCurves: 0
  m_Events: []
