{
  "project_info": {
    "project_number": "1002586447111",
    "firebase_url": "https://spacequest-98f80-default-rtdb.europe-west1.firebasedatabase.app",
    "project_id": "spacequest-98f80",
    "storage_bucket": "spacequest-98f80.appspot.com"
  },
  "client": [
    {
      "client_info": {
        "mobilesdk_app_id": "1:1002586447111:android:4c5150fc05a54e2f6ef9a2",
        "android_client_info": {
          "package_name": "com.KatharsisGames.SpaceQuest"
        }
      },
      "oauth_client": [
        {
          "client_id": "1002586447111-vjbgdgski4e00bn8sid8ann7bmkrhenu.apps.googleusercontent.com",
          "client_type": 3
        }
      ],
      "api_key": [
        {
          "current_key": "AIzaSyBTMrO83dKygcslLvmSUib8imO1--3DTwY"
        }
      ],
      "services": {
        "appinvite_service": {
          "other_platform_oauth_client": [
            {
              "client_id": "1002586447111-vjbgdgski4e00bn8sid8ann7bmkrhenu.apps.googleusercontent.com",
              "client_type": 3
            }
          ]
        }
      }
    }
  ],
  "configuration_version": "1"
}